%YAML 1.1
%TAG !u! tag:unity3d.com,2011:
--- !u!1 &3139104654479756757
GameObject:
  m_ObjectHideFlags: 0
  m_CorrespondingSourceObject: {fileID: 0}
  m_PrefabInstance: {fileID: 0}
  m_PrefabAsset: {fileID: 0}
  serializedVersion: 6
  m_Component:
  - component: {fileID: 3139104654479756759}
  - component: {fileID: 3139104654479756758}
  m_Layer: 0
  m_Name: AdjustSDKManager
  m_TagString: Untagged
  m_Icon: {fileID: 0}
  m_NavMeshLayer: 0
  m_StaticEditorFlags: 0
  m_IsActive: 1
--- !u!4 &3139104654479756759
Transform:
  m_ObjectHideFlags: 0
  m_CorrespondingSourceObject: {fileID: 0}
  m_PrefabInstance: {fileID: 0}
  m_PrefabAsset: {fileID: 0}
  m_GameObject: {fileID: 3139104654479756757}
  m_LocalRotation: {x: 0, y: 0, z: 0, w: 1}
  m_LocalPosition: {x: 0, y: 0, z: 0}
  m_LocalScale: {x: 1, y: 1, z: 1}
  m_Children: []
  m_Father: {fileID: 0}
  m_RootOrder: 0
  m_LocalEulerAnglesHint: {x: 0, y: 0, z: 0}
--- !u!114 &3139104654479756758
MonoBehaviour:
  m_ObjectHideFlags: 0
  m_CorrespondingSourceObject: {fileID: 0}
  m_PrefabInstance: {fileID: 0}
  m_PrefabAsset: {fileID: 0}
  m_GameObject: {fileID: 3139104654479756757}
  m_Enabled: 1
  m_EditorHideFlags: 0
  m_Script: {fileID: 11500000, guid: 3e0ba082ac0ae4708a5b86c78ac901eb, type: 3}
  m_Name: 
  m_EditorClassIdentifier: 
  updateAdjustConfiguretion: 0
  showAdjustConfiguretionHelpBox: 0
  showAdjustConfiguretion: 1
  showAdvanceAdjustConfiguretion: 0
  updateEnumListForPreConfigEventTracker: 0
  showAdjustPreConfigEventTrackerHelpBox: 0
  showAdjustPreConfigEventTracker: 1
  updateEnumListForPreConfigRevenueEventTracker: 0
  showAdjustPreConfigRevenueEventTrackerHelpBox: 0
  showAdjustPreConfigRevenueEventTracker: 0
  showDelayStartPanel: 0
  appTokenForAndroid: 
  appTokenForIOS: 
  isProductionBuild: 0
  startManually: 0
  logLevel: 1
  environment: 0
  eventBuffering: 0
  sendInBackground: 0
  launchDeferredDeeplink: 1
  startDelay: 0
  listOfAdjustEventTracker: []
