%YAML 1.1
%TAG !u! tag:unity3d.com,2011:
--- !u!21 &2100000
Material:
  serializedVersion: 6
  m_ObjectHideFlags: 0
  m_CorrespondingSourceObject: {fileID: 0}
  m_PrefabInstance: {fileID: 0}
  m_PrefabAsset: {fileID: 0}
  m_Name: JellyShader
  m_Shader: {fileID: -6465566751694194690, guid: edaa014e2933149bfa47d7b371a330f6,
    type: 3}
  m_ShaderKeywords: 
  m_LightmapFlags: 4
  m_EnableInstancingVariants: 1
  m_DoubleSidedGI: 0
  m_CustomRenderQueue: -1
  stringTagMap: {}
  disabledShaderPasses: []
  m_SavedProperties:
    serializedVersion: 3
    m_TexEnvs:
    - Texture2D_5A8934B6:
        m_Texture: {fileID: 2800000, guid: 7e83d3db315024f3b9d9a43f18d1ef57, type: 3}
        m_Scale: {x: 1, y: 1}
        m_Offset: {x: 0, y: 0}
    - Texture2D_FFBACF18:
        m_Texture: {fileID: 2800000, guid: 1f0701b70265f46a280fba44fa59a252, type: 3}
        m_Scale: {x: 1, y: 1}
        m_Offset: {x: 0, y: 0}
    - _Texture:
        m_Texture: {fileID: 0}
        m_Scale: {x: 1, y: 1}
        m_Offset: {x: 0, y: 0}
    m_Floats:
    - Vector1_383E84ED: 0.8
    - Vector1_3E1147E9: 0.7
    - Vector1_5B8E650E: 0
    - Vector1_8A3D3CC1: 1.3
    - Vector1_A4C4F705: 7
    - Vector1_B78B054A: 0.7
    - Vector1_DEC144B5: 6
    - Vector1_DFCB8E4C: 0.5
    - Vector1_EC293012: 0.269
    - Vector1_EDE1816E: 0.87
    - Vector1_F731C0B4: 70
    - _Buldge_Power: 0
    - _Buldge_Width: 7
    - _Panner: 0.5
    - _disturbance: 0.001
    - _scale: 1
    m_Colors:
    - Vector2_75076420: {r: 0, g: 2, b: 0, a: 0}
    - _Color_Emission: {r: 0.23529412, g: 0.23529412, b: 0.23529412, a: 0.9019608}
    - _Color_Emission_2: {r: 1, g: 1, b: 1, a: 0}
    - _MainColor: {r: 0.6415094, g: 0.6415094, b: 0.6415094, a: 0}
